[1] 1015
[1] 675
`summarise()` ungrouping output (override with `.groups` argument)
[1] 1
[1] 32
[1] 1
[1] 0.3053598
[1] 1430
[1] 4683
# A tibble: 9,416 x 344
   PATNUM PTAGYNUM  PHTYPE OASISFRM OASISINT      LOSHH  READMSS HOSPICEDAYS DECEASED DISCHARG DISCHRGOS WHRDISCH WHRDSCHOS     SEX AGEATINT AGEATDIS
    <dbl>    <dbl> <dbl+l> <dbl+lb> <dbl+lb>  <dbl+lbl> <dbl+lb>   <dbl+lbl> <dbl+lb> <fct>    <chr>     <fct>    <chr>     <dbl+l> <dbl+lb> <dbl+lb>
 1 400001     4000 1 [Cur…  1 [YES]       30   30        0                NA       NA <NA>     ""        <NA>     ""        0             62       NA
 2 400002     4000 1 [Cur…  2 [NO]        NA  625       NA                NA       NA <NA>     ""        <NA>     ""        0             68       NA
 3 400003     4000 1 [Cur…  2 [NO]        NA  398        0                NA       NA <NA>     ""        <NA>     ""        0             71       NA
 4 400004     4000 1 [Cur…  2 [NO]        NA  920        0                NA       NA <NA>     ""        <NA>     ""        1 [MAL…       69       NA
 5 400005     4000 1 [Cur…  2 [NO]        NA 1095 [109…  0                NA       NA <NA>     ""        <NA>     ""        0             79       NA
 6 400006     4000 1 [Cur…  2 [NO]        NA 1095 [109…  0                NA       NA <NA>     ""        <NA>     ""        0             34       NA
 7 400007     4000 1 [Cur…  1 [YES]       36  151        1 [YES]          NA       NA <NA>     ""        <NA>     ""        0             68       NA
 8 400008     4000 1 [Cur…  1 [YES]       17   17        0                NA       NA <NA>     ""        <NA>     ""        1 [MAL…       52       NA
 9 400009     4000 1 [Cur…  2 [NO]        NA  110        0                NA       NA <NA>     ""        <NA>     ""        0             83       NA
10 400010     4000 1 [Cur…  2 [NO]        NA  708        0                NA       NA <NA>     ""        <NA>     ""        1 [MAL…       15       NA
# … with 9,406 more rows, and 328 more variables: AGEIMPHH <dbl+lbl>, AGEIMPDIS <dbl+lbl>, HISPAN <dbl+lbl>, RACERECD <dbl+lbl>, RACEETHN <dbl+lbl>,
#   RACEAMIN <dbl+lbl>, RACEASIA <dbl+lbl>, RACEBLCK <dbl+lbl>, RACEPACI <dbl+lbl>, RACEWHT <dbl+lbl>, RACEIMP <dbl+lbl>, MARSTAT <fct>,
#   VETERAN <dbl+lbl>, MCARENR <dbl+lbl>, MCAIDENR <dbl+lbl>, ANYADDIR <dbl+lbl>, LIVINGWL <dbl+lbl>, DNR <dbl+lbl>, NOHOSP <dbl+lbl>,
#   FEEDRES <dbl+lbl>, MEDRES <dbl+lbl>, COMFORT <dbl+lbl>, POWER <dbl+lbl>, PROXY <dbl+lbl>, ORGANDON <dbl+lbl>, NOADVANC <dbl+lbl>, OTHRES <dbl+lbl>,
#   OTHEROS <chr>, INPATIENT <dbl+lbl>, PREHOME <dbl+lbl>, PREHMEOS <chr>, POSTHOME <dbl+lbl>, PSTHMEOS <chr>, LIVSMHOS <dbl+lbl>, PREHOSP <dbl+lbl>,
#   PREHOSOS <chr>, POSTHOSP <dbl+lbl>, PSTHOSOS <chr>, WHOLIV <dbl+lbl>, LIVALONE <dbl+lbl>, LIVSPOUS <dbl+lbl>, LIVPAREN <dbl+lbl>,
#   LIVCHILD <dbl+lbl>, LIVOTHFM <dbl+lbl>, LIVNONFM <dbl+lbl>, PCARGIVR <dbl+lbl>, CAREGIVR <dbl+lbl>, ADX1 <chr>, TOTCDDX <dbl+lbl>, CDDX1 <chr>,
#   CDDX2 <chr>, CDDX3 <chr>, CDDX4 <chr>, CDDX5 <chr>, CDDX6 <chr>, CDDX7 <chr>, CDDX8 <chr>, CDDX9 <chr>, CDDX10 <chr>, CDDX11 <chr>, CDDX12 <chr>,
#   CDDX13 <chr>, CDDX14 <chr>, CDDX15 <chr>, CDDX16 <chr>, ANYPROC <dbl+lbl>, TOTPROC <dbl+lbl>, PROCDX1 <chr>, PROCDX2 <chr>, PROCDX3 <chr>,
#   PROCDX4 <chr>, PROCDX5 <chr>, ULCERHI <dbl+lbl>, ULCRSTAT <dbl+lbl>, ULCRSTOS <chr>, COMATOSE <dbl+lbl>, TOTALADL <dbl+lbl>, STFFADLHLP <dbl+lbl>,
#   DRESS <dbl+lbl>, HLPDRESS <dbl+lbl>, BATH <dbl+lbl>, HLPBATH <dbl+lbl>, TOILET <dbl+lbl>, HLPTOIL <dbl+lbl>, TRANSFER <dbl+lbl>,
#   HLPTRANS <dbl+lbl>, WALK <dbl+lbl>, HLPWALK <dbl+lbl>, EAT <dbl+lbl>, HLPEAT <dbl+lbl>, MEDS <dbl+lbl>, COGNFUNC <dbl+lbl>, ANYDVICE <dbl+lbl>,
#   WLKCANE <dbl+lbl>, WHEELCH <dbl+lbl>, MOTORCRT <dbl+lbl>, ORTHOTIC <dbl+lbl>, PROSTHE <dbl+lbl>, NOAIDDEV <dbl+lbl>, ANYASTDEV <dbl+lbl>, …
# A tibble: 9,416 x 1
   CASEID
    <dbl>
 1      1
 2      2
 3      3
 4      4
 5      5
 6      6
 7      7
 8      8
 9      9
10     10
# … with 9,406 more rows
# A tibble: 9,416 x 2
   PTAGYNUM                          PHTYPE
      <dbl>                       <dbl+lbl>
 1     4000 1 [Current Home health patient]
 2     4000 1 [Current Home health patient]
 3     4000 1 [Current Home health patient]
 4     4000 1 [Current Home health patient]
 5     4000 1 [Current Home health patient]
 6     4000 1 [Current Home health patient]
 7     4000 1 [Current Home health patient]
 8     4000 1 [Current Home health patient]
 9     4000 1 [Current Home health patient]
10     4000 1 [Current Home health patient]
# … with 9,406 more rows
# A tibble: 9,416 x 1
    DECEASED
   <dbl+lbl>
 1        NA
 2        NA
 3        NA
 4        NA
 5        NA
 6        NA
 7        NA
 8        NA
 9        NA
10        NA
# … with 9,406 more rows
# A tibble: 9,416 x 1
   WHRDSCHOS
   <chr>    
 1 ""       
 2 ""       
 3 ""       
 4 ""       
 5 ""       
 6 ""       
 7 ""       
 8 ""       
 9 ""       
10 ""       
# … with 9,406 more rows
# A tibble: 9,416 x 1
      HISPAN
   <dbl+lbl>
 1    2 [NO]
 2    2 [NO]
 3    2 [NO]
 4    2 [NO]
 5    2 [NO]
 6    2 [NO]
 7    2 [NO]
 8    2 [NO]
 9    2 [NO]
10    2 [NO]
# … with 9,406 more rows
# A tibble: 9,416 x 1
     VETERAN
   <dbl+lbl>
 1   2 [NO] 
 2  NA      
 3   2 [NO] 
 4   2 [NO] 
 5   2 [NO] 
 6   2 [NO] 
 7   2 [NO] 
 8   1 [YES]
 9   2 [NO] 
10   2 [NO] 
# … with 9,406 more rows
# A tibble: 9,416 x 1
     MCARENR
   <dbl+lbl>
 1   1 [YES]
 2   1 [YES]
 3   1 [YES]
 4   1 [YES]
 5   1 [YES]
 6   2 [NO] 
 7   1 [YES]
 8   2 [NO] 
 9   1 [YES]
10   2 [NO] 
# … with 9,406 more rows
# A tibble: 9,416 x 1
    ANYADDIR
   <dbl+lbl>
 1   1 [YES]
 2   0      
 3   0      
 4   0      
 5   0      
 6   0      
 7   1 [YES]
 8   0      
 9   0      
10   0      
# … with 9,406 more rows
# A tibble: 9,416 x 12
    ANYADDIR  LIVINGWL       DNR    NOHOSP   FEEDRES    MEDRES   COMFORT     POWER     PROXY  ORGANDON  NOADVANC    OTHRES
   <dbl+lbl> <dbl+lbl> <dbl+lbl> <dbl+lbl> <dbl+lbl> <dbl+lbl> <dbl+lbl> <dbl+lbl> <dbl+lbl> <dbl+lbl> <dbl+lbl> <dbl+lbl>
 1   1 [YES]   1 [YES]   1 [YES]         0         0         0         0   0          2 [NO]         0   0          2 [NO]
 2   0         0         0               0         0         0         0   0          2 [NO]         0   1 [YES]    2 [NO]
 3   0         0         0               0         0         0         0   0          2 [NO]         0   1 [YES]    2 [NO]
 4   0         0         0               0         0         0         0   0          2 [NO]         0   1 [YES]    2 [NO]
 5   0         0         0               0         0         0         0   0          2 [NO]         0   1 [YES]    2 [NO]
 6   0         0         0               0         0         0         0   0          2 [NO]         0   1 [YES]    2 [NO]
 7   1 [YES]   0         0               0         0         0         0   1 [YES]    2 [NO]         0   0          2 [NO]
 8   0         0         0               0         0         0         0   0          2 [NO]         0   1 [YES]    2 [NO]
 9   0         0         0               0         0         0         0   0          2 [NO]         0   1 [YES]    2 [NO]
10   0         0         0               0         0         0         0   0          2 [NO]         0   1 [YES]    2 [NO]
# … with 9,406 more rows
# A tibble: 9,416 x 11
    ANYADDIR  LIVINGWL       DNR    NOHOSP   FEEDRES    MEDRES   COMFORT     POWER     PROXY  ORGANDON  NOADVANC
   <dbl+lbl> <dbl+lbl> <dbl+lbl> <dbl+lbl> <dbl+lbl> <dbl+lbl> <dbl+lbl> <dbl+lbl> <dbl+lbl> <dbl+lbl> <dbl+lbl>
 1   1 [YES]   1 [YES]   1 [YES]         0         0         0         0   0          2 [NO]         0   0      
 2   0         0         0               0         0         0         0   0          2 [NO]         0   1 [YES]
 3   0         0         0               0         0         0         0   0          2 [NO]         0   1 [YES]
 4   0         0         0               0         0         0         0   0          2 [NO]         0   1 [YES]
 5   0         0         0               0         0         0         0   0          2 [NO]         0   1 [YES]
 6   0         0         0               0         0         0         0   0          2 [NO]         0   1 [YES]
 7   1 [YES]   0         0               0         0         0         0   1 [YES]    2 [NO]         0   0      
 8   0         0         0               0         0         0         0   0          2 [NO]         0   1 [YES]
 9   0         0         0               0         0         0         0   0          2 [NO]         0   1 [YES]
10   0         0         0               0         0         0         0   0          2 [NO]         0   1 [YES]
# … with 9,406 more rows
# A tibble: 447,536 x 3
   CASEID region val  
    <dbl> <chr>  <chr>
 1      1 PHTYPE 1    
 2      2 PHTYPE 1    
 3      3 PHTYPE 1    
 4      4 PHTYPE 1    
 5      5 PHTYPE 1    
 6      6 PHTYPE 1    
 7      7 PHTYPE 1    
 8      8 PHTYPE 1    
 9      9 PHTYPE 1    
10     10 PHTYPE 1    
# … with 447,526 more rows
…
# A tibble: 4,683 x 20
   CASEID PATNUM  PHTYPE TOTCDDX CDDX1 TOTALRX TOTPROC DIRECTIVES      LOSHH  READMSS     SEX AGEATINT HISPAN RACEBLCK RACEWHT  MARSTAT MCAIDENR ANYADDIR
 *  <dbl>  <dbl> <dbl+l> <dbl+l> <chr>   <dbl> <dbl+l>      <dbl>  <dbl+lbl> <dbl+lb> <dbl+l> <dbl+lb> <dbl+> <dbl+lb> <dbl+l> <dbl+lb> <dbl+lb> <dbl+lb>
 1      1 400001 1 [Cur…       2 6191        4       1          2   30        2 [NO]  2 [FEM…       62 2 [NO]   2 [NO] 1 [YES]  1 [MAR…  1 [YES]  1 [YES]
 2      2 400002 1 [Cur…       3 496        18       0          0  625       -8 [DK]  2 [FEM…       68 2 [NO]   2 [NO] 1 [YES]  5 [NEV…  1 [YES]  2 [NO] 
 3      3 400003 1 [Cur…       2 4019        6       0          0  398        2 [NO]  2 [FEM…       71 2 [NO]   2 [NO] 1 [YES]  2 [WID…  1 [YES]  2 [NO] 
 4      4 400004 1 [Cur…       2 71590      18       0          0  920        2 [NO]  1 [MAL…       69 2 [NO]   2 [NO] 1 [YES]  1 [MAR…  1 [YES]  2 [NO] 
 5      5 400005 1 [Cur…       1 25002      14       0          0 1095 [109…  2 [NO]  2 [FEM…       79 2 [NO]   2 [NO] 1 [YES]  2 [WID…  1 [YES]  2 [NO] 
 6      6 400006 1 [Cur…       4 7580        2       0          0 1095 [109…  2 [NO]  2 [FEM…       34 2 [NO]   2 [NO] 1 [YES]  5 [NEV…  1 [YES]  2 [NO] 
 7      7 400007 1 [Cur…       5 71590      20       1          1  151        1 [YES] 2 [FEM…       68 2 [NO]   2 [NO] 1 [YES]  3 [DIV…  1 [YES]  1 [YES]
 8      8 400008 1 [Cur…       2 V5849      16       1          0   17        2 [NO]  1 [MAL…       52 2 [NO]   2 [NO] 1 [YES]  4 [SEP…  2 [NO]   2 [NO] 
 9      9 400009 1 [Cur…       1 4019        7       0          0  110        2 [NO]  2 [FEM…       83 2 [NO]   2 [NO] 1 [YES] -8 [DK]   1 [YES]  2 [NO] 
10     10 400010 1 [Cur…       1 3439        1       0          0  708        2 [NO]  1 [MAL…       15 2 [NO]   2 [NO] 1 [YES]  5 [NEV…  1 [YES]  2 [NO] 
# … with 4,673 more rows, and 2 more variables: LIVINGWL <dbl+lbl>, DNR <dbl+lbl>
# A tibble: 4,683 x 20
   CASEID PATNUM  PHTYPE TOTCDDX CDDX1 TOTALRX TOTPROC DIRECTIVES      LOSHH  READMSS     SEX AGEATINT HISPAN RACEBLCK RACEWHT  MARSTAT MCAIDENR ANYADDIR
    <dbl>  <dbl> <dbl+l> <dbl+l> <chr>   <dbl> <dbl+l>      <dbl>  <dbl+lbl> <dbl+lb> <dbl+l> <dbl+lb> <dbl+> <dbl+lb> <dbl+l> <dbl+lb> <dbl+lb> <dbl+lb>
 1      1 400001 1 [Cur…       2 6191        4       1          2   30        2 [NO]  2 [FEM…       62 2 [NO]   2 [NO] 1 [YES]  1 [MAR…  1 [YES]  1 [YES]
 2      2 400002 1 [Cur…       3 496        18       0          0  625       -8 [DK]  2 [FEM…       68 2 [NO]   2 [NO] 1 [YES]  5 [NEV…  1 [YES]  0      
 3      3 400003 1 [Cur…       2 4019        6       0          0  398        2 [NO]  2 [FEM…       71 2 [NO]   2 [NO] 1 [YES]  2 [WID…  1 [YES]  0      
 4      4 400004 1 [Cur…       2 71590      18       0          0  920        2 [NO]  1 [MAL…       69 2 [NO]   2 [NO] 1 [YES]  1 [MAR…  1 [YES]  0      
 5      5 400005 1 [Cur…       1 25002      14       0          0 1095 [109…  2 [NO]  2 [FEM…       79 2 [NO]   2 [NO] 1 [YES]  2 [WID…  1 [YES]  0      
 6      6 400006 1 [Cur…       4 7580        2       0          0 1095 [109…  2 [NO]  2 [FEM…       34 2 [NO]   2 [NO] 1 [YES]  5 [NEV…  1 [YES]  0      
 7      7 400007 1 [Cur…       5 71590      20       1          1  151        1 [YES] 2 [FEM…       68 2 [NO]   2 [NO] 1 [YES]  3 [DIV…  1 [YES]  1 [YES]
 8      8 400008 1 [Cur…       2 V5849      16       1          0   17        2 [NO]  1 [MAL…       52 2 [NO]   2 [NO] 1 [YES]  4 [SEP…  2 [NO]   0      
 9      9 400009 1 [Cur…       1 4019        7       0          0  110        2 [NO]  2 [FEM…       83 2 [NO]   2 [NO] 1 [YES] -8 [DK]   1 [YES]  0      
10     10 400010 1 [Cur…       1 3439        1       0          0  708        2 [NO]  1 [MAL…       15 2 [NO]   2 [NO] 1 [YES]  5 [NEV…  1 [YES]  0      
# … with 4,673 more rows, and 2 more variables: LIVINGWL <dbl+lbl>, DNR <dbl+lbl>
# A tibble: 3,872 x 20
   CASEID PATNUM  PHTYPE TOTCDDX CDDX1 TOTALRX TOTPROC DIRECTIVES      LOSHH READMSS     SEX AGEATINT HISPAN RACEBLCK RACEWHT MARSTAT MCAIDENR ANYADDIR
    <dbl>  <dbl> <dbl+l> <dbl+l> <chr>   <dbl> <dbl+l>      <dbl>  <dbl+lbl> <dbl+l> <dbl+l> <dbl+lb> <dbl+> <dbl+lb> <dbl+l> <fct>   <dbl+lb> <dbl+lb>
 1      1 400001 1 [Cur…       2 6191        4       1          2   30       0       0             62 2 [NO]   2 [NO] 1 [YES] MARRIED  1 [YES]  1 [YES]
 2      3 400003 1 [Cur…       2 4019        6       0          0  398       0       0             71 2 [NO]   2 [NO] 1 [YES] WIDOWED  1 [YES]  0      
 3      4 400004 1 [Cur…       2 71590      18       0          0  920       0       1 [MAL…       69 2 [NO]   2 [NO] 1 [YES] MARRIED  1 [YES]  0      
 4      5 400005 1 [Cur…       1 25002      14       0          0 1095 [109… 0       0             79 2 [NO]   2 [NO] 1 [YES] WIDOWED  1 [YES]  0      
 5      6 400006 1 [Cur…       4 7580        2       0          0 1095 [109… 0       0             34 2 [NO]   2 [NO] 1 [YES] NEVER …  1 [YES]  0      
 6      7 400007 1 [Cur…       5 71590      20       1          1  151       1 [YES] 0             68 2 [NO]   2 [NO] 1 [YES] DIVORC…  1 [YES]  1 [YES]
 7      8 400008 1 [Cur…       2 V5849      16       1          0   17       0       1 [MAL…       52 2 [NO]   2 [NO] 1 [YES] SEPARA…  2 [NO]   0      
 8     10 400010 1 [Cur…       1 3439        1       0          0  708       0       1 [MAL…       15 2 [NO]   2 [NO] 1 [YES] NEVER …  1 [YES]  0      
 9     11 400101 1 [Cur…       4 43889       7       0          0   13       0       1 [MAL…       59 2 [NO]   2 [NO] 1 [YES] DIVORC…  2 [NO]   0      
10     12 400102 1 [Cur…       4 7812        6       1          0    4       0       1 [MAL…       61 2 [NO]   2 [NO] 1 [YES] MARRIED  2 [NO]   0      
# … with 3,862 more rows, and 2 more variables: LIVINGWL <dbl+lbl>, DNR <dbl+lbl>
…
MARSTATLIVING WITH PARTNER    0.239                    
                             (0.346)                   
                                                       
Constant                    -3.791***      -3.109***   
                             (0.264)        (0.328)    
                                                       
-------------------------------------------------------
Observations                  3,872          3,872     
Log Likelihood              -2,272.827    -2,094.566   
Akaike Inf. Crit.           4,573.654      4,205.133   
=======================================================
Note:                       *p<0.1; **p<0.05; ***p<0.01
# A tibble: 3,872 x 20
   CASEID PATNUM  PHTYPE TOTCDDX CDDX1 TOTALRX TOTPROC DIRECTIVES      LOSHH READMSS   SEX AGEATINT HISPAN RACEBLCK RACEWHT MARSTAT MCAIDENR ANYADDIR
    <dbl>  <dbl> <dbl+l> <dbl+l> <chr>   <dbl> <dbl+l>      <dbl>  <dbl+lbl> <dbl+l> <dbl> <dbl+lb> <dbl+> <dbl+lb> <dbl+l> <fct>   <dbl+lb> <dbl+lb>
 1      1 400001 1 [Cur…       2 6191        4       1          2   30           NaN   NaN       62 2 [NO]   2 [NO] 1 [YES] MARRIED      NaN      NaN
 2      3 400003 1 [Cur…       2 4019        6       0          0  398           NaN   NaN       71 2 [NO]   2 [NO] 1 [YES] WIDOWED      NaN      NaN
 3      4 400004 1 [Cur…       2 71590      18       0          0  920           NaN   NaN       69 2 [NO]   2 [NO] 1 [YES] MARRIED      NaN      NaN
 4      5 400005 1 [Cur…       1 25002      14       0          0 1095 [109…     NaN   NaN       79 2 [NO]   2 [NO] 1 [YES] WIDOWED      NaN      NaN
 5      6 400006 1 [Cur…       4 7580        2       0          0 1095 [109…     NaN   NaN       34 2 [NO]   2 [NO] 1 [YES] NEVER …      NaN      NaN
 6      7 400007 1 [Cur…       5 71590      20       1          1  151           NaN   NaN       68 2 [NO]   2 [NO] 1 [YES] DIVORC…      NaN      NaN
 7      8 400008 1 [Cur…       2 V5849      16       1          0   17           NaN   NaN       52 2 [NO]   2 [NO] 1 [YES] SEPARA…        0      NaN
 8     10 400010 1 [Cur…       1 3439        1       0          0  708           NaN   NaN       15 2 [NO]   2 [NO] 1 [YES] NEVER …      NaN      NaN
 9     11 400101 1 [Cur…       4 43889       7       0          0   13           NaN   NaN       59 2 [NO]   2 [NO] 1 [YES] DIVORC…        0      NaN
10     12 400102 1 [Cur…       4 7812        6       1          0    4           NaN   NaN       61 2 [NO]   2 [NO] 1 [YES] MARRIED        0      NaN
# … with 3,862 more rows, and 2 more variables: LIVINGWL <dbl+lbl>, DNR <dbl+lbl>
# A tibble: 3,872 x 20
   CASEID PATNUM  PHTYPE TOTCDDX CDDX1 TOTALRX TOTPROC DIRECTIVES      LOSHH READMSS     SEX AGEATINT HISPAN RACEBLCK RACEWHT MARSTAT MCAIDENR ANYADDIR
    <dbl>  <dbl> <dbl+l> <dbl+l> <chr>   <dbl> <dbl+l>      <dbl>  <dbl+lbl> <dbl+l> <dbl+l> <dbl+lb> <dbl+> <dbl+lb> <dbl+l> <fct>   <dbl+lb> <dbl+lb>
 1      1 400001 1 [Cur…       2 6191        4       1          2   30       0       0             62 2 [NO]   2 [NO] 1 [YES] MARRIED  1 [YES]  1 [YES]
 2      3 400003 1 [Cur…       2 4019        6       0          0  398       0       0             71 2 [NO]   2 [NO] 1 [YES] WIDOWED  1 [YES]  0      
 3      4 400004 1 [Cur…       2 71590      18       0          0  920       0       1 [MAL…       69 2 [NO]   2 [NO] 1 [YES] MARRIED  1 [YES]  0      
 4      5 400005 1 [Cur…       1 25002      14       0          0 1095 [109… 0       0             79 2 [NO]   2 [NO] 1 [YES] WIDOWED  1 [YES]  0      
 5      6 400006 1 [Cur…       4 7580        2       0          0 1095 [109… 0       0             34 2 [NO]   2 [NO] 1 [YES] NEVER …  1 [YES]  0      
 6      7 400007 1 [Cur…       5 71590      20       1          1  151       1 [YES] 0             68 2 [NO]   2 [NO] 1 [YES] DIVORC…  1 [YES]  1 [YES]
 7      8 400008 1 [Cur…       2 V5849      16       1          0   17       0       1 [MAL…       52 2 [NO]   2 [NO] 1 [YES] SEPARA…  0        0      
 8     10 400010 1 [Cur…       1 3439        1       0          0  708       0       1 [MAL…       15 2 [NO]   2 [NO] 1 [YES] NEVER …  1 [YES]  0      
 9     11 400101 1 [Cur…       4 43889       7       0          0   13       0       1 [MAL…       59 2 [NO]   2 [NO] 1 [YES] DIVORC…  0        0      
10     12 400102 1 [Cur…       4 7812        6       1          0    4       0       1 [MAL…       61 2 [NO]   2 [NO] 1 [YES] MARRIED  0        0      
# … with 3,862 more rows, and 2 more variables: LIVINGWL <dbl+lbl>, DNR <dbl+lbl>
…
